[
  {
    "status": "Pick Up",
    "status_code": "PUP",
    "location": "Singapore",
    "last_updated_at": "23-09-2019",
    "latest_eta": "26-09-2019"
  },
  {
    "status": "Station Outbound Package",
    "status_code": "SOP",
    "location": "Singapore",
    "last_updated_at": "23-09-2019",
    "latest_eta": "26-09-2019"
  },
  {
    "status": "Transit Inbound",
    "status_code": "TRI",
    "location": "Singapore",
    "last_updated_at": "23-09-2019",
    "latest_eta": "26-09-2019"
  },
  {
    "status": "Delay (01)",
    "status_code": "DLY",
    "location": "Singapore",
    "last_updated_at": "23-09-2019",
    "latest_eta": "26-09-2019"
  },
  {
    "status": "Proof of Delivery",
    "status_code": "POD",
    "location": "Singapore",
    "last_updated_at": "23-09-2019",
    "latest_eta": "26-09-2019"
  },
]